{
  "results": [
    {
      "popularity": 1768.318,
      "vote_count": 486,
      "video": false,
      "poster_path": "\/betExZlgK0l7CZ9CsCBVcwO1OjL.jpg",
      "id": 531219,
      "adult": false,
      "backdrop_path": "\/8rIoyM6zYXJNjzGseT3MRusMPWl.jpg",
      "original_language": "en",
      "original_title": "Roald Dahl's The Witches",
      "genre_ids": [
        14,
        10751,
        12,
        35,
        27
      ],
      "title": "Roald Dahl's The Witches",
      "vote_average": 7.1,
      "overview": "In late 1967, a young orphaned boy goes to live with his loving grandma in the rural Alabama town of Demopolis. As the boy and his grandmother encounter some deceptively glamorous but thoroughly diabolical witches, she wisely whisks him away to a seaside resort. Regrettably, they arrive at precisely the same time that the world's Grand High Witch has gathered.",
      "release_date": "2020-10-26"
    },
    {
      "popularity": 560.202,
      "vote_count": 338,
      "video": false,
      "poster_path": "\/uOw5JD8IlD546feZ6oxbIjvN66P.jpg",
      "id": 718444,
      "adult": false,
      "backdrop_path": "\/x4UkhIQuHIJyeeOTdcbZ3t3gBSa.jpg",
      "original_language": "en",
      "original_title": "Rogue",
      "genre_ids": [
        28,
        12,
        18,
        53
      ],
      "title": "Rogue",
      "vote_average": 5.8,
      "overview": "Battle-hardened O’Hara leads a lively mercenary team of soldiers on a daring mission: rescue hostages from their captors in remote Africa. But as the mission goes awry and the team is stranded, O’Hara’s squad must face a bloody, brutal encounter with a gang of rebels.",
      "release_date": "2020-08-20"
    },
    {
      "popularity": 469.664,
      "vote_count": 164,
      "video": false,
      "poster_path": "\/3eg0kGC2Xh0vhydJHO37Sp4cmMt.jpg",
      "id": 531499,
      "adult": false,
      "backdrop_path": "\/zogWnCSztU8xvabaepQnAwsOtOt.jpg",
      "original_language": "en",
      "original_title": "The Tax Collector",
      "genre_ids": [
        28,
        80,
        18
      ],
      "title": "The Tax Collector",
      "vote_average": 6.1,
      "overview": "David Cuevas is a family man who works as a gangland tax collector for high ranking Los Angeles gang members. He makes collections across the city with his partner Creeper making sure people pay up or will see retaliation. An old threat returns to Los Angeles that puts everything David loves in harm’s way.",
      "release_date": "2020-08-07"
    },
    {
      "popularity": 379.519,
      "vote_count": 42,
      "video": false,
      "poster_path": "\/8F9xUvb1JMWUMkFV2Yq3aiueAbq.jpg",
      "id": 595149,
      "adult": false,
      "backdrop_path": "\/3GTSbc85Xangv8JkBSsQZMXGyhh.jpg",
      "original_language": "en",
      "original_title": "Death of Me",
      "genre_ids": [
        27
      ],
      "title": "Death of Me",
      "vote_average": 5.7,
      "overview": "A couple on holiday on a remote South Pacific island awaken one morning with a hang over and no recollection of what transpired. When playing back a video of the previous night, they see they participated in a local ritual that somehow ends with him murdering her.",
      "release_date": "2020-10-02"
    },
    {
      "popularity": 300.419,
      "vote_count": 104,
      "video": false,
      "poster_path": "\/ltyARDw2EFXZ2H2ERnlEctXPioP.jpg",
      "id": 425001,
      "adult": false,
      "backdrop_path": "\/4gKyQ1McHa8ZKDsYoyKQSevF01J.jpg",
      "original_language": "en",
      "original_title": "The War with Grandpa",
      "genre_ids": [
        35,
        10751,
        18
      ],
      "title": "The War with Grandpa",
      "vote_average": 6,
      "overview": "Sixth-grader Peter is pretty much your average kid—he likes gaming, hanging with his friends and his beloved pair of Air Jordans. But when his recently widowed grandfather Ed  moves in with Peter’s family, the boy is forced to give up his most prized possession of all, his bedroom. Unwilling to let such an injustice stand, Peter devises a series of increasingly elaborate pranks to drive out the interloper, but Grandpa Ed won’t go without a fight.",
      "release_date": "2020-08-27"
    },
    {
      "popularity": 262.993,
      "vote_count": 93,
      "video": false,
      "poster_path": "\/4BgSWFMW2MJ0dT5metLzsRWO7IJ.jpg",
      "id": 726739,
      "adult": false,
      "backdrop_path": "\/t22fWbzdnThPseipsdpwgdPOPCR.jpg",
      "original_language": "en",
      "original_title": "Cats & Dogs 3: Paws Unite",
      "genre_ids": [
        35,
        28
      ],
      "title": "Cats & Dogs 3: Paws Unite",
      "vote_average": 6.5,
      "overview": "It's been ten years since the creation of the Great Truce, an elaborate joint-species surveillance system designed and monitored by cats and dogs to keep the peace when conflicts arise. But when a tech-savvy villain hacks into wireless networks to use frequencies only heard by cats and dogs, he manipulates them into conflict and the worldwide battle between cats and dogs is BACK ON. Now, a team of inexperienced and untested agents will have to use their old-school animal instincts to restore order and peace between cats and dogs everywhere.",
      "release_date": "2020-10-02"
    },
    {
      "popularity": 258.127,
      "vote_count": 0,
      "video": false,
      "poster_path": "\/2EiAX4eChSWQHwgIFAZbPgXKCJ6.jpg",
      "id": 611605,
      "adult": false,
      "backdrop_path": "\/dqGs8fWcaMiaMquLt289Is6bT7p.jpg",
      "original_language": "en",
      "original_title": "1BR",
      "genre_ids": [
        18,
        27,
        53
      ],
      "title": "1BR",
      "vote_average": 0,
      "overview": "When Sarah lucks into a sweet one-bedroom at Asilo Del Mar Apartments in Los Angeles, she think she's hit the jackpot. It's got plenty of space, friendly tenants, group BBQs and even a cute neighbour next door. All is not what it seems: loud noises start keeping her awake at night; her cat is missing; everyone seems to be a little too helpful and friendly, except for the weirdo, Lester. Soon, Sarah learns she didn't choose this apartment — it chose her.",
      "release_date": "2020-11-26"
    },
    {
      "popularity": 126.438,
      "vote_count": 33,
      "video": false,
      "poster_path": "\/maBFNvaxae6IgLL4qwz7hvz19EZ.jpg",
      "id": 627661,
      "adult": false,
      "backdrop_path": "\/lvNQKZUsw7pg79CROCFlIk8PT67.jpg",
      "original_language": "en",
      "original_title": "Cranston Academy: Monster Zone",
      "genre_ids": [
        16
      ],
      "title": "Cranston Academy: Monster Zone",
      "vote_average": 6.5,
      "overview": "An intelligent 15-year-old high school student is unexpectedly transferred to a boarding school where he opens a portal of monsters from another dimension.",
      "release_date": "2020-04-29"
    },
    {
      "popularity": 119.476,
      "vote_count": 71,
      "video": false,
      "poster_path": "\/lhMIra0pqWNuD6CIXoTmGwZ0EBS.jpg",
      "id": 590995,
      "adult": false,
      "backdrop_path": "\/lIE7kfdLBRd0KENNtOaIqPPWNqh.jpg",
      "original_language": "en",
      "original_title": "The Craft: Legacy",
      "genre_ids": [
        27,
        18,
        14
      ],
      "title": "The Craft: Legacy",
      "vote_average": 6.5,
      "overview": "An eclectic foursome of aspiring teenage witches get more than they bargained for as they lean into their newfound powers.",
      "release_date": "2020-10-28"
    },
    {
      "popularity": 102.554,
      "vote_count": 177,
      "video": false,
      "poster_path": "\/oxxIOWDP6beG37VG3jMxE77pRwC.jpg",
      "id": 417466,
      "adult": false,
      "backdrop_path": "\/hmOrnAImC8QVRurauDcK0l3jjyw.jpg",
      "original_language": "es",
      "original_title": "Monos",
      "genre_ids": [
        18,
        53
      ],
      "title": "Monos",
      "vote_average": 6.9,
      "overview": "On a faraway mountaintop, eight kids with guns watch over a hostage and a conscripted milk cow.",
      "release_date": "2019-09-05"
    },
    {
      "popularity": 95.607,
      "vote_count": 28,
      "video": false,
      "poster_path": "\/wGkr4r1e8nubmSNKJpv3HL6sFrA.jpg",
      "id": 616251,
      "adult": false,
      "backdrop_path": "\/uN69NvydA44NQVRg9Rq4t5nNQ2e.jpg",
      "original_language": "en",
      "original_title": "The Broken Hearts Gallery",
      "genre_ids": [
        35,
        10749
      ],
      "title": "The Broken Hearts Gallery",
      "vote_average": 6.6,
      "overview": "Lucy is a young gallery assistant who collects mementos from her relationships. She discovers that she must let go of her past to move forward, and comes up with a lovely, artistic way to help herself and others who have suffered heartbreak.",
      "release_date": "2020-09-11"
    },
    {
      "popularity": 91.237,
      "vote_count": 667,
      "video": false,
      "poster_path": "\/dqA2FCzz4OMmXLitKopzf476RVB.jpg",
      "id": 585244,
      "adult": false,
      "backdrop_path": "\/ezcf15gSuZmW51N5yiqE3tWg9zu.jpg",
      "original_language": "en",
      "original_title": "I Still Believe",
      "genre_ids": [
        18,
        10402
      ],
      "title": "I Still Believe",
      "vote_average": 7.8,
      "overview": "The true-life story of Christian music star Jeremy Camp and his journey of love and loss that looks to prove there is always hope.",
      "release_date": "2020-03-12"
    },
    {
      "popularity": 90.173,
      "vote_count": 0,
      "video": false,
      "poster_path": "\/5DuSFFEn41ZDc6mSqMm0twrWGn.jpg",
      "id": 529203,
      "adult": false,
      "backdrop_path": "\/mqmHhAf7OhJq5Tq81p7wFI0Fnde.jpg",
      "original_language": "en",
      "original_title": "The Croods: A New Age",
      "genre_ids": [
        12,
        14,
        10751,
        16
      ],
      "title": "The Croods: A New Age",
      "vote_average": 0,
      "overview": "After leaving their cave, the Croods encounter their biggest threat since leaving: another family called the Bettermans, who claim to be better and evolved. But after Eep and the Bettermans' only daughter escape, the two families must put aside their differences to save them.",
      "release_date": "2020-11-25"
    },
    {
      "popularity": 77.968,
      "vote_count": 174,
      "video": false,
      "poster_path": "\/iFcSfoMu9hQIX4t0CxIkDJKgIES.jpg",
      "id": 520725,
      "adult": false,
      "backdrop_path": "\/lI81PeOM5XBAPQF06hcl7TOgGwl.jpg",
      "original_language": "fr",
      "original_title": "Le prince oublié",
      "genre_ids": [
        12,
        35,
        14
      ],
      "title": "The Lost Prince",
      "vote_average": 5.8,
      "overview": "Djibi lives alone with Sofia, his 8-year-old daughter. Every night, he invents a story to put him to sleep. When Sofia falls asleep, these extraordinary stories come to life somewhere in an imaginary world inhabited by knights, pirates and other dragons. In this world that belongs only to them, Sofia is always the princess to save, and the brave Prince is none other than Djibi himself.  But 3 years later, the entry of Sofia to the college will mark the end of her childhood. To the despair of her father, she no longer needs her stories at night. On the one hand, Djibi will have to accept that his daughter will grow up and move away from him. On the other hand, in the World of Stories, the Prince will have to face the most epic of all his adventures. Find your destiny in a world where it no longer has a place.",
      "release_date": "2020-02-12"
    },
    {
      "popularity": 72.397,
      "vote_count": 18,
      "video": false,
      "poster_path": "\/lI9JWDutOcN7MOfprddggEK5XdN.jpg",
      "id": 390635,
      "adult": false,
      "backdrop_path": "\/mWb5UjxCmevMlvbxnXc9Y3zc00w.jpg",
      "original_language": "ja",
      "original_title": "劇場版「Fate\/stay night [Heaven’s Feel]」Ⅲ.spring song",
      "genre_ids": [
        16
      ],
      "title": "Fate\/stay night: Heaven's Feel III. Spring Song",
      "vote_average": 4.4,
      "overview": "As Sakura drowns in the murky darkness of the sins she has committed, Shirō's vow to protect her at all costs leads him into a raging battle to put an end to the Holy Grail War.  Will Shirō's wish reach Sakura even as he challenges fate itself in a desperate battle against the rising tide?",
      "release_date": "2020-08-15"
    },
    {
      "popularity": 69.25,
      "vote_count": 591,
      "video": false,
      "poster_path": "\/yf5IuMW6GHghu39kxA0oFx7Bxmj.jpg",
      "id": 587792,
      "adult": false,
      "backdrop_path": "\/d7JUXVvjvVCXWs1mlpyO5ESdWdT.jpg",
      "original_language": "en",
      "original_title": "Palm Springs",
      "genre_ids": [
        35,
        10749,
        14,
        9648
      ],
      "title": "Palm Springs",
      "vote_average": 7.6,
      "overview": "When carefree Nyles and reluctant maid of honor Sarah have a chance encounter at a Palm Springs wedding, things get complicated when they find themselves unable to escape the venue, themselves, or each other.",
      "release_date": "2020-07-10"
    },
    {
      "popularity": 55.915,
      "vote_count": 0,
      "video": false,
      "poster_path": "\/yBZu9MOX38NCshVkHK57GkOps8S.jpg",
      "id": 596161,
      "adult": false,
      "backdrop_path": "\/abCn6fJjCPEZE3Q2dCmfidMxrEG.jpg",
      "original_language": "en",
      "original_title": "Let Him Go",
      "genre_ids": [
        18,
        53,
        80
      ],
      "title": "Let Him Go",
      "vote_average": 0,
      "overview": "A retired sheriff and his wife fight to rescue their grandson from a dangerous off-grid family upon the death of their son.",
      "release_date": "2020-11-05"
    },
    {
      "popularity": 55.455,
      "vote_count": 4,
      "video": false,
      "poster_path": "\/xKCtoYHUyX8zAg68eemnYa2orep.jpg",
      "id": 632632,
      "adult": false,
      "backdrop_path": "\/u1wHUA0R48FH4WV3sGqjwx3aNZm.jpg",
      "original_language": "ja",
      "original_title": "映画 ギヴン",
      "genre_ids": [
        16,
        18,
        10402
      ],
      "title": "Given",
      "vote_average": 6.8,
      "overview": "Following the airing of the final episode of the Given anime adaptation today in Japan, the official Twitter account announced that a feature film adaptation will be released in 2020 directly picking up where the TV series left off.",
      "release_date": "2020-08-22"
    },
    {
      "popularity": 51.418,
      "vote_count": 6,
      "video": false,
      "poster_path": "\/gBRM1EgfslcxcZCSf6Vp89VYCmP.jpg",
      "id": 516632,
      "adult": false,
      "backdrop_path": "\/9nm3eQY0FiPL391vlQrr4Q5WC9w.jpg",
      "original_language": "en",
      "original_title": "The Empty Man",
      "genre_ids": [
        80,
        18,
        27
      ],
      "title": "The Empty Man",
      "vote_average": 6.2,
      "overview": "After a group of teens from a small Midwestern town begin to mysteriously disappear, the locals believe it is the work of an urban legend known as The Empty Man. As a retired cop investigates and struggles to make sense of the stories, he discovers a secretive group and their attempts to summon a horrific, mystical entity, and soon his life—and the lives of those close to him—are in grave danger.",
      "release_date": "2020-10-22"
    },
    {
      "popularity": 45.144,
      "vote_count": 147,
      "video": false,
      "poster_path": "\/2QKNREj8xPHShu993QAySoGDCwu.jpg",
      "id": 585077,
      "adult": false,
      "backdrop_path": "\/o7B34PaxCee7KcwvkqYYXef4gXa.jpg",
      "original_language": "ja",
      "original_title": "海獣の子供",
      "genre_ids": [
        16,
        14,
        12,
        9648
      ],
      "title": "Children of the Sea",
      "vote_average": 7.2,
      "overview": "Ruka is a young girl whose parents are separated and whose father works in an aquarium. When two boys, Umi and Sora, who were raised in the sea by dugongs, are brought to the aquarium, Ruka feels drawn to them and begins to realize that she has the same sort of supernatural connection to the ocean that they do. Umi and Sora's special power seems to be connected to strange events that have been occurring more and more frequently, such as the appearance of sea creatures far from their home territory and the disappearance of aquarium animals around the world. However, the exact nature of the boys' power and of the abnormal events is unknown, and Ruka gets drawn into investigating the mystery that surrounds her new friends.",
      "release_date": "2019-06-07"
    }
  ],
  "page": 1,
  "total_results": 266,
  "dates": {
    "maximum": "2020-12-02",
    "minimum": "2020-11-11"
  },
  "total_pages": 14
}